Data Manipulation with R: Soil pore data
…
?read_csv
br_122_cross

## # A tibble: 73 x 12
##       X1   X.x          Label.x  ID.x Vol...mm..x x.Cent..mm..x
##    <int> <int>            <chr> <int>       <dbl>         <dbl>
##  1     1     1 br_122_Cross.tif     1   673.91000         13.41
##  2    10    10 br_122_Cross.tif    10     0.00000         27.54
##  3    11    11 br_122_Cross.tif    11     0.00091         28.39
##  4    12    12 br_122_Cross.tif    12     0.00001         31.00
##  5    13    13 br_122_Cross.tif    13     0.01000         25.21
##  6    14    14 br_122_Cross.tif    14     0.01000         13.74
##  7    15    15 br_122_Cross.tif    15     0.00004         27.61
##  8    16    16 br_122_Cross.tif    16     0.00065         19.31
##  9    17    17 br_122_Cross.tif    17     0.00007         26.90
## 10    18    18 br_122_Cross.tif    18     0.00003         19.43
## # ... with 63 more rows, and 6 more variables: y.Cent..mm..x <dbl>,
## #   z.Cent..mm..x <dbl>, Thickness..mm. <dbl>, SD.Thickness..mm. <dbl>,
## #   Max.Thickness..mm. <dbl>, SA..mm. <dbl>
…
## [1] TRUE

Choose nicer column names and reload

We pick names. Then use set_names to set those.

pore_col_names = c("ID","ID1","Source","ID2","Vol",
           "x.Cent","y.Cent","z.Cent",
           "Thickness","SD.Thickness","Max.Thickness","SA")
br_122_cross_renamed <- 
    set_names(br_122_cross,pore_col_names)

br_122_cross_renamed

## # A tibble: 73 x 12
##       ID   ID1           Source   ID2       Vol x.Cent y.Cent z.Cent
##    <int> <int>            <chr> <int>     <dbl>  <dbl>  <dbl>  <dbl>
##  1     1     1 br_122_Cross.tif     1 673.91000  13.41   7.77  16.31
##  2    10    10 br_122_Cross.tif    10   0.00000  27.54  11.61   0.08
##  3    11    11 br_122_Cross.tif    11   0.00091  28.39  11.60   0.03
##  4    12    12 br_122_Cross.tif    12   0.00001  31.00  11.62   0.00
##  5    13    13 br_122_Cross.tif    13   0.01000  25.21  11.68   0.21
##  6    14    14 br_122_Cross.tif    14   0.01000  13.74  11.92   0.25
##  7    15    15 br_122_Cross.tif    15   0.00004  27.61  11.78   0.02
##  8    16    16 br_122_Cross.tif    16   0.00065  19.31  11.87   0.06
##  9    17    17 br_122_Cross.tif    17   0.00007  26.90  11.87   0.01
## 10    18    18 br_122_Cross.tif    18   0.00003  19.43  11.91   0.01
## # ... with 63 more rows, and 4 more variables: Thickness <dbl>,
## #   SD.Thickness <dbl>, Max.Thickness <dbl>, SA <dbl>

Select only some (non-redundant) columns

We select some columns we want. Or select to remove some columns.

select(br_122_cross_renamed,ID,Source,Vol,Thickness)

## # A tibble: 73 x 4
##       ID           Source       Vol Thickness
##    <int>            <chr>     <dbl>     <dbl>
##  1     1 br_122_Cross.tif 673.91000      0.13
##  2    10 br_122_Cross.tif   0.00000      0.09
##  3    11 br_122_Cross.tif   0.00091      0.08
##  4    12 br_122_Cross.tif   0.00001      0.05
##  5    13 br_122_Cross.tif   0.01000      0.09
##  6    14 br_122_Cross.tif   0.01000      0.10
##  7    15 br_122_Cross.tif   0.00004      0.05
##  8    16 br_122_Cross.tif   0.00065      0.06
##  9    17 br_122_Cross.tif   0.00007      0.05
## 10    18 br_122_Cross.tif   0.00003      0.05
## # ... with 63 more rows

select(br_122_cross_renamed,-ID1,-ID2)

## # A tibble: 73 x 10
##       ID           Source       Vol x.Cent y.Cent z.Cent Thickness
##    <int>            <chr>     <dbl>  <dbl>  <dbl>  <dbl>     <dbl>
##  1     1 br_122_Cross.tif 673.91000  13.41   7.77  16.31      0.13
##  2    10 br_122_Cross.tif   0.00000  27.54  11.61   0.08      0.09
##  3    11 br_122_Cross.tif   0.00091  28.39  11.60   0.03      0.08
##  4    12 br_122_Cross.tif   0.00001  31.00  11.62   0.00      0.05
##  5    13 br_122_Cross.tif   0.01000  25.21  11.68   0.21      0.09
##  6    14 br_122_Cross.tif   0.01000  13.74  11.92   0.25      0.10
##  7    15 br_122_Cross.tif   0.00004  27.61  11.78   0.02      0.05
##  8    16 br_122_Cross.tif   0.00065  19.31  11.87   0.06      0.06
##  9    17 br_122_Cross.tif   0.00007  26.90  11.87   0.01      0.05
## 10    18 br_122_Cross.tif   0.00003  19.43  11.91   0.01      0.05
## # ... with 63 more rows, and 3 more variables: SD.Thickness <dbl>,
## #   Max.Thickness <dbl>, SA <dbl>
…
##   X1 = col_integer(),
##   X.x = col_integer(),
##   Label.x = col_character(),
##   ID.x = col_integer(),
##   Vol...mm..x = col_double(),
##   x.Cent..mm..x = col_double(),
##   y.Cent..mm..x = col_double(),
##   z.Cent..mm..x = col_double(),
##   Thickness..mm. = col_double(),
##   SD.Thickness..mm. = col_double(),
##   Max.Thickness..mm. = col_double(),
##   SA..mm. = col_double()
## )

## # A tibble: 73 x 12
##       ID   ID1           Source   ID2       Vol x.Cent y.Cent z.Cent
##    <int> <int>            <chr> <int>     <dbl>  <dbl>  <dbl>  <dbl>
##  1     1     1 br_122_Cross.tif     1 673.91000  13.41   7.77  16.31
##  2    10    10 br_122_Cross.tif    10   0.00000  27.54  11.61   0.08
##  3    11    11 br_122_Cross.tif    11   0.00091  28.39  11.60   0.03
##  4    12    12 br_122_Cross.tif    12   0.00001  31.00  11.62   0.00
##  5    13    13 br_122_Cross.tif    13   0.01000  25.21  11.68   0.21
##  6    14    14 br_122_Cross.tif    14   0.01000  13.74  11.92   0.25
##  7    15    15 br_122_Cross.tif    15   0.00004  27.61  11.78   0.02
##  8    16    16 br_122_Cross.tif    16   0.00065  19.31  11.87   0.06
##  9    17    17 br_122_Cross.tif    17   0.00007  26.90  11.87   0.01
## 10    18    18 br_122_Cross.tif    18   0.00003  19.43  11.91   0.01
## # ... with 63 more rows, and 4 more variables: Thickness <dbl>,
## #   SD.Thickness <dbl>, Max.Thickness <dbl>, SA <dbl>
…
br_122_cross

## # A tibble: 73 x 10
##       ID           Source       Vol x.Cent y.Cent z.Cent Thickness
##    <int>            <chr>     <dbl>  <dbl>  <dbl>  <dbl>     <dbl>
##  1     1 br_122_Cross.tif 673.91000  13.41   7.77  16.31      0.13
##  2    10 br_122_Cross.tif   0.00000  27.54  11.61   0.08      0.09
##  3    11 br_122_Cross.tif   0.00091  28.39  11.60   0.03      0.08
##  4    12 br_122_Cross.tif   0.00001  31.00  11.62   0.00      0.05
##  5    13 br_122_Cross.tif   0.01000  25.21  11.68   0.21      0.09
##  6    14 br_122_Cross.tif   0.01000  13.74  11.92   0.25      0.10
##  7    15 br_122_Cross.tif   0.00004  27.61  11.78   0.02      0.05
##  8    16 br_122_Cross.tif   0.00065  19.31  11.87   0.06      0.06
##  9    17 br_122_Cross.tif   0.00007  26.90  11.87   0.01      0.05
## 10    18 br_122_Cross.tif   0.00003  19.43  11.91   0.01      0.05
## # ... with 63 more rows, and 3 more variables: SD.Thickness <dbl>,
## #   Max.Thickness <dbl>, SA <dbl>

Filter observations

Filter lets us to choose rows with some feature that we want: for example, pores with non-zero thickness.

br_122_cross_renamed %>%
    select(ID,Vol,Thickness) %>%
    filter(Thickness > 0)

## # A tibble: 73 x 3
##       ID       Vol Thickness
##    <int>     <dbl>     <dbl>
##  1     1 673.91000      0.13
##  2    10   0.00000      0.09
##  3    11   0.00091      0.08
##  4    12   0.00001      0.05
##  5    13   0.01000      0.09
##  6    14   0.01000      0.10
##  7    15   0.00004      0.05
##  8    16   0.00065      0.06
##  9    17   0.00007      0.05
## 10    18   0.00003      0.05
## # ... with 63 more rows
…
br_122_cross %>%
    filter(y.Cent < 9)

## # A tibble: 1 x 10
##      ID           Source    Vol x.Cent y.Cent z.Cent Thickness
##   <int>            <chr>  <dbl>  <dbl>  <dbl>  <dbl>     <dbl>
## 1     1 br_122_Cross.tif 673.91  13.41   7.77  16.31      0.13
## # ... with 3 more variables: SD.Thickness <dbl>, Max.Thickness <dbl>,
## #   SA <dbl>

br_122_cross %>%
    filter(y.Cent > 9) 

## # A tibble: 72 x 10
##       ID           Source     Vol x.Cent y.Cent z.Cent Thickness
##    <int>            <chr>   <dbl>  <dbl>  <dbl>  <dbl>     <dbl>
##  1    10 br_122_Cross.tif 0.00000  27.54  11.61   0.08      0.09
##  2    11 br_122_Cross.tif 0.00091  28.39  11.60   0.03      0.08
##  3    12 br_122_Cross.tif 0.00001  31.00  11.62   0.00      0.05
##  4    13 br_122_Cross.tif 0.01000  25.21  11.68   0.21      0.09
##  5    14 br_122_Cross.tif 0.01000  13.74  11.92   0.25      0.10
##  6    15 br_122_Cross.tif 0.00004  27.61  11.78   0.02      0.05
##  7    16 br_122_Cross.tif 0.00065  19.31  11.87   0.06      0.06
##  8    17 br_122_Cross.tif 0.00007  26.90  11.87   0.01      0.05
##  9    18 br_122_Cross.tif 0.00003  19.43  11.91   0.01      0.05
## 10    19 br_122_Cross.tif 0.00007  19.60  11.96   0.01      0.05
## # ... with 62 more rows, and 3 more variables: SD.Thickness <dbl>,
## #   Max.Thickness <dbl>, SA <dbl>
…
